^D:\1.MAIN\•LESSONS\•ОС\ПРАКТИКА\ПРАКТИКА 1\IMAGEWITHNAME\IMAGEWITHNAME\X64\DEBUG\IMAGEWITHNAME.OBJ|D:\1.MAIN\•LESSONS\•ОС\ПРАКТИКА\ПРАКТИКА 1\IMAGEWITHNAME\IMAGEWITHNAME\X64\DEBUG\IMAGEWITHNAME.RES
/OUT:"D:\1.MAIN\•LESSONS\•ОС\ПРАКТИКА\ПРАКТИКА 1\IMAGEWITHNAME\X64\DEBUG\IMAGEWITHNAME.EXE" /INCREMENTAL /ILK:"X64\DEBUG\IMAGEWITHNAME.ILK" /NOLOGO KERNEL32.LIB USER32.LIB GDI32.LIB WINSPOOL.LIB COMDLG32.LIB ADVAPI32.LIB SHELL32.LIB OLE32.LIB OLEAUT32.LIB UUID.LIB ODBC32.LIB ODBCCP32.LIB /MANIFEST /MANIFESTUAC:"level='asInvoker' uiAccess='false'" /manifest:embed /DEBUG /PDB:"D:\1.MAIN\•LESSONS\•ОС\ПРАКТИКА\ПРАКТИКА 1\IMAGEWITHNAME\X64\DEBUG\IMAGEWITHNAME.PDB" /SUBSYSTEM:WINDOWS /TLBID:1 /DYNAMICBASE /NXCOMPAT /IMPLIB:"D:\1.MAIN\•LESSONS\•ОС\ПРАКТИКА\ПРАКТИКА 1\IMAGEWITHNAME\X64\DEBUG\IMAGEWITHNAME.LIB" /MACHINE:X64 X64\DEBUG\IMAGEWITHNAME.RES
X64\DEBUG\IMAGEWITHNAME.OBJ
