^D:\1.MAIN\•LESSONS\•ОС\ПРАКТИКА\ПРАКТИКА 1\IMAGEWITHNAME\IMAGEWITHNAME\X64\DEBUG\IMAGEWITHNAME.OBJ|D:\1.MAIN\•LESSONS\•ОС\ПРАКТИКА\ПРАКТИКА 1\IMAGEWITHNAME\IMAGEWITHNAME\X64\DEBUG\IMAGEWITHNAME.RES
D:\1.MAIN\•LESSONS\•ОС\Практика\Практика 1\IMAGEWITHNAME\X64\DEBUG\IMAGEWITHNAME.EXE
D:\1.MAIN\•LESSONS\•ОС\Практика\Практика 1\IMAGEWITHNAME\IMAGEWITHNAME\X64\DEBUG\IMAGEWITHNAME.ILK
D:\1.MAIN\•LESSONS\•ОС\Практика\Практика 1\IMAGEWITHNAME\X64\DEBUG\IMAGEWITHNAME.PDB
